%YAML 1.1
%TAG !u! tag:unity3d.com,2011:
--- !u!114 &11400000
MonoBehaviour:
  m_ObjectHideFlags: 0
  m_CorrespondingSourceObject: {fileID: 0}
  m_PrefabInstance: {fileID: 0}
  m_PrefabAsset: {fileID: 0}
  m_GameObject: {fileID: 0}
  m_Enabled: 1
  m_EditorHideFlags: 0
  m_Script: {fileID: 11500000, guid: 1926d431aa2941ad89586d77c67ada0c, type: 3}
  m_Name: UISettings
  m_EditorClassIdentifier: 
  ItemPrefab: {fileID: 4148301484504950755, guid: 221788d059c3c6f4fad28858034ba597,
    type: 3}
