%YAML 1.1
%TAG !u! tag:unity3d.com,2011:
--- !u!1045 &1
EditorBuildSettings:
  m_ObjectHideFlags: 0
  serializedVersion: 2
  m_Scenes:
  - enabled: 1
    path: Assets/_Project/Content/Scenes/Main.unity
    guid: e7a9915797e4ebe43868e728f3908184
  m_configObjects: {}
