%YAML 1.1
%TAG !u! tag:unity3d.com,2011:
--- !u!1 &8750989624540535605
GameObject:
  m_ObjectHideFlags: 0
  m_CorrespondingSourceObject: {fileID: 0}
  m_PrefabInstance: {fileID: 0}
  m_PrefabAsset: {fileID: 0}
  serializedVersion: 6
  m_Component:
  - component: {fileID: 8750989624540535604}
  - component: {fileID: 8750989624540535607}
  m_Layer: 0
  m_Name: Bootstrap
  m_TagString: Untagged
  m_Icon: {fileID: 0}
  m_NavMeshLayer: 0
  m_StaticEditorFlags: 0
  m_IsActive: 1
--- !u!4 &8750989624540535604
Transform:
  m_ObjectHideFlags: 0
  m_CorrespondingSourceObject: {fileID: 0}
  m_PrefabInstance: {fileID: 0}
  m_PrefabAsset: {fileID: 0}
  m_GameObject: {fileID: 8750989624540535605}
  m_LocalRotation: {x: 0, y: 0, z: 0, w: 1}
  m_LocalPosition: {x: 0, y: 0, z: 0}
  m_LocalScale: {x: 1, y: 1, z: 1}
  m_Children: []
  m_Father: {fileID: 0}
  m_RootOrder: 0
  m_LocalEulerAnglesHint: {x: 0, y: 0, z: 0}
--- !u!114 &8750989624540535607
MonoBehaviour:
  m_ObjectHideFlags: 0
  m_CorrespondingSourceObject: {fileID: 0}
  m_PrefabInstance: {fileID: 0}
  m_PrefabAsset: {fileID: 0}
  m_GameObject: {fileID: 8750989624540535605}
  m_Enabled: 1
  m_EditorHideFlags: 0
  m_Script: {fileID: 11500000, guid: 4cd620335d2d1d04687ea8d5944077ac, type: 3}
  m_Name: 
  m_EditorClassIdentifier: 
  initSettings:
    NetworkSettings: {fileID: 11400000, guid: c006f89f18ee41f418fc58c0b6878dd4, type: 2}
    UISettings: {fileID: 11400000, guid: eeefeed097b3fbc48b74316ec831334a, type: 2}
    Camera: {fileID: 0}
    AsyncProcessor: {fileID: 0}
    UnstoppableAsyncProcessor: {fileID: 0}
